commit e1ee5fd11390f74d0af3766408d25541d68b2a90
Author: Angelica Walker <angiewalker@jhu.edu>
Date:   Wed Feb 15 09:30:01 2017 -0500

    Completed Homework 1

commit fa163cf55ea71fc391cf2ff929e06abe5e71b58c
Author: angiewalker@jhu.edu <angiewalker@jhu.edu>
Date:   Mon Feb 13 15:57:55 2017 -0500

    Updated homework1

commit 644446474946d3c5b2d7a12412fcbf706ae5f73e
Author: angiewalker@jhu.edu <angiewalker@jhu.edu>
Date:   Mon Feb 13 15:40:07 2017 -0500

    Cleanup

commit 364b8e1e28b15abe9d032886d683022ad444ff9c
Author: angiewalker@jhu.edu <angiewalker@jhu.edu>
Date:   Mon Feb 13 15:38:53 2017 -0500

    Created HW1

commit 7b81b0b39079dd707ebb90abd641dce29f7393f5
Author: AngelicaWalker <angiewalker@jhu.edu>
Date:   Fri Feb 3 14:22:24 2017 -0500

    Updated README

commit d251f65e5b5250726c6fe02989d33f0f5a36e7b9
Author: AngelicaWalker <angiewalker@jhu.edu>
Date:   Fri Feb 3 14:19:59 2017 -0500

    Created README
